100 40
                                                                                                    
                                                                                                    
                                                                                                    
                                                                                                    
                                                                                                    
                                                                                                    
                                                                                                    
                                                                                                    
                                                                                                    
                                                                                                    
                                                                                                    
000000000000000000000000000000000000000000000000000000000000000000000000                            
0```````````````````````````````o//-```````````````````````````````````0                            
0```````````````````````````````s::.```````````````````````````````````0                            
0``````````````````````````````.h//.```````````````````````````````````0                            
0``````````````````````````````-h//-```````````````````````````````````0                            
0``````````````````````````````/ho/:.``````````````````````````````````0                            
0`````````````````````````````.oys+/-``````````````````````````````````0                            
0``........``````````````````.+oyoo+:.`````````````......``````````````0                            
0`.................`````````.+ooy+oo/:.................................0                            
0........................``-+oo+yoooo+:-...............................0                            
0........................./+ooooyoo+ooo+:..............................0                            
0......................:+ooo++oos++ooo+oo+:............................0                            
0.................-:/+oooo+oooo+yooo++oooooo+/-........................0                            
0..........:/+oooyssssossossosooyoosoossossosssssoo+///--..............0                            
0..........-////+++ooo+ooooo++oos++oooo++oooo++++////////-.............0                            
0...............--:://++oo++ooo+hoo++oooo++/////::---..................0                            
0.....................-:/+ooo+o+yoooooo+////:-.........................0                            
0........................-:/ooooy+o+o+///:-............................0                            
0..........................-:oo+hooo/++/-..............................0                            
0............................:ooy+o/++/-...............................0                            
0.............................:syo++/:-................................0                            
0..............................+ho++:-.................................0                            
0..........--------------------:y++/-.....................-----------..0                            
0....---------------------------y++/-----------------------------------0                            
0.------------------------------y++/-----------------------------------0                            
0-------------------------------+++:-----------------------------------0                            
0--------------------------------//:-----------------------------------0                            
000000000000000000000000000000000000000000000000000000000000000000000000                            
    a                                                                                               

