35 10
                                   
                                   
                                   
                                   
    000                            
    0l00                           
    00l00                          
     00l00                         
      00l0                         
       000                         
\newframe
                                   
                                   
                                   
                                   
    000                            
    0l0                            
    0l0                            
    0l0                            
    0l0                            
    000                            
\newframe
                                   
                                   
                                   
                                   
    000                            
   00l0                            
  00l00                            
 00l00                             
 0l00                              
 000                               
\newframe
                                   
                                   
                                   
                                   
 000000                            
 0llll0                            
 000000                            
                                   
                                   
                                   
\newframe
                                   
 000                               
 0l00                              
 00l00                             
  00l00                            
   00l0                            
    000                            
                                   
                                   
                                   
\newframe
                                   
    000                            
    0l0                            
    0l0                            
    0l0                            
    0l0                            
    000                            
                                   
                                   
                                   
\newframe
                                   
       000                         
      00l0                         
     00l00                         
    00l00                          
    0l00                           
    000                            
                                   
                                   
                                   
\newframe
                                   
                                   
                                   
                                   
    000000                         
    0llll0                         
    000000                         
                                   
                                   
                                   

